^C:\USERS\D_SIR\SOURCE\REPOS\MODULE13 PROJECT\MODULE13 PROJECT\MAIN.CPP
C:\USERS\D_SIR\SOURCE\REPOS\MODULE13 PROJECT\MODULE13 PROJECT\X64\DEBUG\VC143.PDB
C:\USERS\D_SIR\SOURCE\REPOS\MODULE13 PROJECT\MODULE13 PROJECT\X64\DEBUG\VC143.IDB
C:\USERS\D_SIR\SOURCE\REPOS\MODULE13 PROJECT\MODULE13 PROJECT\X64\DEBUG\MAIN.OBJ
