^C:\USERS\D_SIR\SOURCE\REPOS\MODULE13 PROJECT\MODULE13 PROJECT\X64\DEBUG\MAIN.OBJ
C:\USERS\D_SIR\SOURCE\REPOS\MODULE13 PROJECT\X64\DEBUG\MODULE13 PROJECT.EXE
C:\USERS\D_SIR\SOURCE\REPOS\MODULE13 PROJECT\MODULE13 PROJECT\X64\DEBUG\MODULE13 PROJECT.ILK
C:\USERS\D_SIR\SOURCE\REPOS\MODULE13 PROJECT\X64\DEBUG\MODULE13 PROJECT.PDB
